Timestamp,Email Address,When did you join Remote?,Why would you like to participate? What do you hope to get out of it?,Is there a particular period that would NOT work for you?,Do you prefer in-person or remotely?,Who is your manager?
5/31/2021 15:15:02,random1@remote.com,24/11/2020,,,in person,
5/31/2021 15:26:09,random2@remote.com,19/4/2021,,,in person,
5/31/2021 17:50:07,asdf@remote.com,1/3/2021,,,in person,
5/31/2021 19:28:49,random1@remote.com,4/10/2020,,,in person,
5/31/2021 20:52:35,random2@remote.com,25/1/2021,,,in person,
6/1/2021 13:36:25,asdf@remote.com,26/10/2020,,,in person,
6/1/2021 22:05:51,random1@remote.com,11/1/2021,,,in person,
6/2/2021 1:52:30,random2@remote.com,22/2/2021,,,in person,
6/2/2021 5:05:35,asdf@remote.com,15/12/2020,,,in person,
6/2/2021 10:29:23,random1@remote.com,15/4/2021,,,in person,
6/9/2021 11:08:07,random2@remote.com,1/12/2020,,,in person,
6/9/2021 11:17:06,asdf@remote.com,1/2/2021,,,in person,
6/9/2021 11:27:15,random1@remote.com,8/2/2021,,,in person,
6/9/2021 11:28:06,random2@remote.com,15/3/2021,,,in person,
6/9/2021 11:44:13,asdf@remote.com,15/3/2021,,,in person,
6/9/2021 12:31:31,random1@remote.com,25/1/2021,,,in person,
6/9/2021 13:18:21,random2@remote.com,8/3/2021,,,in person,
6/9/2021 13:32:38,asdf@remote.com,1/11/2021,,,in person,
5/31/2021 15:05:38,random1@remote.com,3/1/2020,,,remotely,
5/31/2021 15:20:27,random2@remote.com,23/2/2021,,,remotely,
5/31/2021 17:54:52,asdf@remote.com,8/2/2021,,,remotely,
6/3/2021 9:18:32,random1@remote.com,1/12/2020,,,remotely,
6/3/2021 21:05:43,random2@remote.com,8/6/2020,,,remotely,
6/7/2021 22:38:43,asdf@remote.com,4/11/2020,,,remotely,
6/9/2021 11:12:08,random1@remote.com,31/3/2021,,,remotely,
6/9/2021 23:07:42,random2@remote.com,25/1/2021,,,in person,